EESchema Schematic File Version 4
LIBS:cmsis_dap-cache
EELAYER 29 0
EELAYER END
$Descr A4 11693 8268
encoding utf-8
Sheet 1 1
Title ""
Date ""
Rev ""
Comp ""
Comment1 ""
Comment2 ""
Comment3 ""
Comment4 ""
$EndDescr
$Comp
L MCU_ST_STM32F0:STM32F070F6Px U2
U 1 1 5D4ACA47
P 6850 5000
F 0 "U2" H 6750 5050 50  0000 C CNN
F 1 "STM32F070F6Px" H 6800 4900 50  0000 C CNN
F 2 "Package_SO:TSSOP-20_4.4x6.5mm_P0.65mm" H 6250 4300 50  0001 R CNN
F 3 "http://www.st.com/st-web-ui/static/active/en/resource/technical/document/datasheet/DM00141386.pdf" H 6850 5000 50  0001 C CNN
	1    6850 5000
	1    0    0    -1  
$EndComp
$Comp
L Device:Crystal Y1
U 1 1 5D4AD630
P 5400 5450
F 0 "Y1" V 5354 5581 50  0000 L CNN
F 1 "8M" V 5445 5581 50  0000 L CNN
F 2 "Crystal:Crystal_SMD_5032-2Pin_5.0x3.2mm" H 5400 5450 50  0001 C CNN
F 3 "~" H 5400 5450 50  0001 C CNN
	1    5400 5450
	0    1    1    0   
$EndComp
$Comp
L Device:C C4
U 1 1 5D4B00B9
P 4850 5300
F 0 "C4" V 4800 5200 50  0000 C CNN
F 1 "20pF" V 4800 5450 50  0000 C CNN
F 2 "Capacitor_SMD:C_0402_1005Metric" H 4888 5150 50  0001 C CNN
F 3 "~" H 4850 5300 50  0001 C CNN
	1    4850 5300
	0    1    1    0   
$EndComp
$Comp
L Device:C C5
U 1 1 5D4B0C03
P 4850 5600
F 0 "C5" V 4900 5500 50  0000 C CNN
F 1 "20pF" V 4900 5750 50  0000 C CNN
F 2 "Capacitor_SMD:C_0402_1005Metric" H 4888 5450 50  0001 C CNN
F 3 "~" H 4850 5600 50  0001 C CNN
	1    4850 5600
	0    1    1    0   
$EndComp
$Comp
L Device:C C2
U 1 1 5D4B11F7
P 6350 3950
F 0 "C2" H 6235 3904 50  0000 R CNN
F 1 "100nF" H 6235 3995 50  0000 R CNN
F 2 "Capacitor_SMD:C_0402_1005Metric" H 6388 3800 50  0001 C CNN
F 3 "~" H 6350 3950 50  0001 C CNN
	1    6350 3950
	-1   0    0    1   
$EndComp
$Comp
L Regulator_Linear:AMS1117-3.3 U1
U 1 1 5D4B2AD6
P 3800 2550
F 0 "U1" H 3800 2792 50  0000 C CNN
F 1 "AMS1117-3.3" H 3800 2701 50  0000 C CNN
F 2 "Package_TO_SOT_SMD:SOT-223-3_TabPin2" H 3800 2750 50  0001 C CNN
F 3 "http://www.advanced-monolithic.com/pdf/ds1117.pdf" H 3900 2300 50  0001 C CNN
	1    3800 2550
	1    0    0    -1  
$EndComp
$Comp
L Connector:USB_B_Micro MicroUSB1
U 1 1 5D4B58E5
P 1750 2750
F 0 "MicroUSB1" H 1807 3217 50  0000 C CNN
F 1 "USB_B_Micro" H 1807 3126 50  0000 C CNN
F 2 "Connector_USB:USB_Micro-B_Molex-105017-0001" H 1900 2700 50  0001 C CNN
F 3 "~" H 1900 2700 50  0001 C CNN
	1    1750 2750
	1    0    0    -1  
$EndComp
$Comp
L Device:C C1
U 1 1 5D4B7612
P 3300 2700
F 0 "C1" H 3185 2654 50  0000 R CNN
F 1 "10uF" H 3185 2745 50  0000 R CNN
F 2 "Capacitor_SMD:C_0603_1608Metric" H 3338 2550 50  0001 C CNN
F 3 "~" H 3300 2700 50  0001 C CNN
	1    3300 2700
	-1   0    0    1   
$EndComp
$Comp
L Device:R R2
U 1 1 5D4BC0D0
P 5800 4850
F 0 "R2" H 5870 4896 50  0000 L CNN
F 1 "2K2" H 5870 4805 50  0000 L CNN
F 2 "Resistor_SMD:R_0402_1005Metric" V 5730 4850 50  0001 C CNN
F 3 "~" H 5800 4850 50  0001 C CNN
	1    5800 4850
	1    0    0    -1  
$EndComp
$Comp
L Connector_Generic:Conn_02x05_Odd_Even SWD1
U 1 1 5D4C41EB
P 9250 3650
F 0 "SWD1" H 9300 4067 50  0000 C CNN
F 1 "Conn_02x05_Odd_Even" H 9300 3976 50  0000 C CNN
F 2 "Connector_PinHeader_1.27mm:PinHeader_2x05_P1.27mm_Vertical" H 9250 3650 50  0001 C CNN
F 3 "~" H 9250 3650 50  0001 C CNN
	1    9250 3650
	-1   0    0    -1  
$EndComp
$Comp
L Connector:Conn_01x10_Male J2
U 1 1 5D4C8AC4
P 7600 2200
F 0 "J2" H 7550 1500 50  0000 C CNN
F 1 "Conn_01x10_Male" H 7600 1600 50  0000 C CNN
F 2 "Connector_PinHeader_2.54mm:PinHeader_1x10_P2.54mm_Vertical" H 7600 2200 50  0001 C CNN
F 3 "~" H 7600 2200 50  0001 C CNN
	1    7600 2200
	1    0    0    1   
$EndComp
$Comp
L Device:R R1
U 1 1 5D4CB086
P 5800 4350
F 0 "R1" H 5870 4396 50  0000 L CNN
F 1 "2K2" H 5870 4305 50  0000 L CNN
F 2 "Resistor_SMD:R_0402_1005Metric" V 5730 4350 50  0001 C CNN
F 3 "~" H 5800 4350 50  0001 C CNN
	1    5800 4350
	1    0    0    -1  
$EndComp
$Comp
L Device:LED PWR1
U 1 1 5D4CBEF4
P 2350 4850
F 0 "PWR1" H 2343 4595 50  0000 C CNN
F 1 "LED" H 2343 4686 50  0000 C CNN
F 2 "LED_SMD:LED_0603_1608Metric" H 2350 4850 50  0001 C CNN
F 3 "~" H 2350 4850 50  0001 C CNN
	1    2350 4850
	-1   0    0    1   
$EndComp
$Comp
L Device:LED RUN1
U 1 1 5D4CC9F2
P 2350 5200
F 0 "RUN1" H 2343 4945 50  0000 C CNN
F 1 "LED" H 2343 5036 50  0000 C CNN
F 2 "LED_SMD:LED_0603_1608Metric" H 2350 5200 50  0001 C CNN
F 3 "~" H 2350 5200 50  0001 C CNN
	1    2350 5200
	-1   0    0    1   
$EndComp
$Comp
L Device:LED CNT1
U 1 1 5D4CCDD2
P 2350 5550
F 0 "CNT1" H 2343 5295 50  0000 C CNN
F 1 "LED" H 2343 5386 50  0000 C CNN
F 2 "LED_SMD:LED_0603_1608Metric" H 2350 5550 50  0001 C CNN
F 3 "~" H 2350 5550 50  0001 C CNN
	1    2350 5550
	-1   0    0    1   
$EndComp
$Comp
L Device:LED Vref1
U 1 1 5D4CD15B
P 2350 5900
F 0 "Vref1" H 2343 5645 50  0000 C CNN
F 1 "LED" H 2343 5736 50  0000 C CNN
F 2 "LED_SMD:LED_0603_1608Metric" H 2350 5900 50  0001 C CNN
F 3 "~" H 2350 5900 50  0001 C CNN
	1    2350 5900
	-1   0    0    1   
$EndComp
$Comp
L Device:R R3
U 1 1 5D4CD838
P 2650 4850
F 0 "R3" V 2443 4850 50  0000 C CNN
F 1 "2K2" V 2534 4850 50  0000 C CNN
F 2 "Resistor_SMD:R_0402_1005Metric" V 2580 4850 50  0001 C CNN
F 3 "~" H 2650 4850 50  0001 C CNN
	1    2650 4850
	0    1    1    0   
$EndComp
$Comp
L Device:R R4
U 1 1 5D4CE1A6
P 2650 5200
F 0 "R4" V 2443 5200 50  0000 C CNN
F 1 "2K2" V 2534 5200 50  0000 C CNN
F 2 "Resistor_SMD:R_0402_1005Metric" V 2580 5200 50  0001 C CNN
F 3 "~" H 2650 5200 50  0001 C CNN
	1    2650 5200
	0    1    1    0   
$EndComp
$Comp
L Device:R R5
U 1 1 5D4CE55C
P 2650 5550
F 0 "R5" V 2443 5550 50  0000 C CNN
F 1 "2K2" V 2534 5550 50  0000 C CNN
F 2 "Resistor_SMD:R_0402_1005Metric" V 2580 5550 50  0001 C CNN
F 3 "~" H 2650 5550 50  0001 C CNN
	1    2650 5550
	0    1    1    0   
$EndComp
$Comp
L Device:R R6
U 1 1 5D4CE87F
P 2650 5900
F 0 "R6" V 2443 5900 50  0000 C CNN
F 1 "2K2" V 2534 5900 50  0000 C CNN
F 2 "Resistor_SMD:R_0402_1005Metric" V 2580 5900 50  0001 C CNN
F 3 "~" H 2650 5900 50  0001 C CNN
	1    2650 5900
	0    1    1    0   
$EndComp
$Comp
L Device:C C3
U 1 1 5D4CEAA6
P 7250 3950
F 0 "C3" H 7135 3904 50  0000 R CNN
F 1 "100nF" H 7135 3995 50  0000 R CNN
F 2 "Capacitor_SMD:C_0402_1005Metric" H 7288 3800 50  0001 C CNN
F 3 "~" H 7250 3950 50  0001 C CNN
	1    7250 3950
	-1   0    0    1   
$EndComp
Wire Wire Line
	2050 2550 2600 2550
Wire Wire Line
	3300 2550 3500 2550
Connection ~ 3300 2550
Wire Wire Line
	2600 2100 2600 2550
Connection ~ 2600 2550
Wire Wire Line
	2600 2550 2700 2550
Wire Wire Line
	2700 2100 2700 2550
Connection ~ 2700 2550
Wire Wire Line
	2700 2550 3300 2550
Text Label 2550 2750 0    50   ~ 0
USB_DP
Text Label 2550 2850 0    50   ~ 0
USB_DM
Wire Wire Line
	2550 2750 2050 2750
Wire Wire Line
	2050 2850 2550 2850
NoConn ~ 2050 2950
Wire Wire Line
	1650 3150 1750 3150
Wire Wire Line
	1750 3150 3300 3150
Wire Wire Line
	3300 3150 3300 2850
Connection ~ 1750 3150
Wire Wire Line
	3800 2850 3800 3150
Wire Wire Line
	3800 3150 3300 3150
Connection ~ 3300 3150
$Comp
L power:GND #PWR07
U 1 1 5D4D9608
P 3300 3150
F 0 "#PWR07" H 3300 2900 50  0001 C CNN
F 1 "GND" H 3305 2977 50  0000 C CNN
F 2 "" H 3300 3150 50  0001 C CNN
F 3 "" H 3300 3150 50  0001 C CNN
	1    3300 3150
	1    0    0    -1  
$EndComp
$Comp
L power:VCC #PWR02
U 1 1 5D4DD942
P 4750 2550
F 0 "#PWR02" H 4750 2400 50  0001 C CNN
F 1 "VCC" H 4767 2723 50  0000 C CNN
F 2 "" H 4750 2550 50  0001 C CNN
F 3 "" H 4750 2550 50  0001 C CNN
	1    4750 2550
	1    0    0    -1  
$EndComp
Wire Wire Line
	6150 4500 5800 4500
Wire Wire Line
	5800 4700 6150 4700
Wire Wire Line
	6650 4300 6650 3800
Wire Wire Line
	6650 3800 6350 3800
Wire Wire Line
	6350 3800 5800 3800
Wire Wire Line
	5800 3800 5800 4200
Connection ~ 6350 3800
$Comp
L power:GND #PWR05
U 1 1 5D4EB95F
P 6350 4100
F 0 "#PWR05" H 6350 3850 50  0001 C CNN
F 1 "GND" H 6355 3927 50  0000 C CNN
F 2 "" H 6350 4100 50  0001 C CNN
F 3 "" H 6350 4100 50  0001 C CNN
	1    6350 4100
	1    0    0    -1  
$EndComp
$Comp
L power:GND #PWR06
U 1 1 5D4EBDC4
P 7250 4100
F 0 "#PWR06" H 7250 3850 50  0001 C CNN
F 1 "GND" H 7255 3927 50  0000 C CNN
F 2 "" H 7250 4100 50  0001 C CNN
F 3 "" H 7250 4100 50  0001 C CNN
	1    7250 4100
	1    0    0    -1  
$EndComp
Wire Wire Line
	6750 4300 6750 3800
Wire Wire Line
	6750 3800 7250 3800
$Comp
L power:VCC #PWR03
U 1 1 5D4ED01F
P 6350 3800
F 0 "#PWR03" H 6350 3650 50  0001 C CNN
F 1 "VCC" H 6367 3973 50  0000 C CNN
F 2 "" H 6350 3800 50  0001 C CNN
F 3 "" H 6350 3800 50  0001 C CNN
	1    6350 3800
	1    0    0    -1  
$EndComp
$Comp
L power:VCC #PWR04
U 1 1 5D4ED602
P 7250 3800
F 0 "#PWR04" H 7250 3650 50  0001 C CNN
F 1 "VCC" H 7267 3973 50  0000 C CNN
F 2 "" H 7250 3800 50  0001 C CNN
F 3 "" H 7250 3800 50  0001 C CNN
	1    7250 3800
	1    0    0    -1  
$EndComp
Connection ~ 7250 3800
$Comp
L power:GND #PWR013
U 1 1 5D4EDB3A
P 6650 5950
F 0 "#PWR013" H 6650 5700 50  0001 C CNN
F 1 "GND" H 6655 5777 50  0000 C CNN
F 2 "" H 6650 5950 50  0001 C CNN
F 3 "" H 6650 5950 50  0001 C CNN
	1    6650 5950
	1    0    0    -1  
$EndComp
$Comp
L power:GND #PWR010
U 1 1 5D4EEBB8
P 5800 5000
F 0 "#PWR010" H 5800 4750 50  0001 C CNN
F 1 "GND" H 5805 4827 50  0000 C CNN
F 2 "" H 5800 5000 50  0001 C CNN
F 3 "" H 5800 5000 50  0001 C CNN
	1    5800 5000
	1    0    0    -1  
$EndComp
Wire Wire Line
	6150 5300 5400 5300
Wire Wire Line
	5400 5300 5000 5300
Connection ~ 5400 5300
Wire Wire Line
	6150 5400 5800 5400
Wire Wire Line
	5800 5400 5800 5600
Wire Wire Line
	5800 5600 5400 5600
Wire Wire Line
	5400 5600 5000 5600
Connection ~ 5400 5600
$Comp
L power:GND #PWR012
U 1 1 5D4F5B76
P 4500 5600
F 0 "#PWR012" H 4500 5350 50  0001 C CNN
F 1 "GND" H 4505 5427 50  0000 C CNN
F 2 "" H 4500 5600 50  0001 C CNN
F 3 "" H 4500 5600 50  0001 C CNN
	1    4500 5600
	1    0    0    -1  
$EndComp
Wire Wire Line
	4700 5300 4500 5300
Wire Wire Line
	4500 5300 4500 5600
Wire Wire Line
	4700 5600 4500 5600
Connection ~ 4500 5600
Text Label 7550 4500 0    50   ~ 0
PA0
Text Label 7550 4600 0    50   ~ 0
PA1
Text Label 7550 4700 0    50   ~ 0
PA2_SWDIO_TMS
Text Label 7550 4800 0    50   ~ 0
PA3_SWO_TDO
Text Label 7550 4900 0    50   ~ 0
PA4_SWDCLK_TCK
Text Label 7550 5000 0    50   ~ 0
PA5_nRST
Text Label 7550 5100 0    50   ~ 0
PA6_NC_TDI
Text Label 7550 5200 0    50   ~ 0
PA7
Text Label 7550 5300 0    50   ~ 0
USB_DM
Text Label 7550 5400 0    50   ~ 0
USB_DP
Text Label 7550 5500 0    50   ~ 0
PA13
Text Label 7550 5600 0    50   ~ 0
PA14
Text Label 6050 4500 2    50   ~ 0
NRST
Text Label 6050 4700 2    50   ~ 0
BOOT0
Text Label 6050 5300 2    50   ~ 0
PF0
Text Label 6050 5400 2    50   ~ 0
PF1
Text Label 6050 5600 2    50   ~ 0
PB1
Wire Wire Line
	6150 5600 6050 5600
Wire Wire Line
	7450 4500 7550 4500
Wire Wire Line
	7450 4600 7550 4600
Wire Wire Line
	7550 4700 7450 4700
Wire Wire Line
	7450 4800 7550 4800
Wire Wire Line
	7550 4900 7450 4900
Wire Wire Line
	7450 5000 7550 5000
Wire Wire Line
	7550 5100 7450 5100
Wire Wire Line
	7450 5200 7550 5200
Wire Wire Line
	7550 5300 7450 5300
Wire Wire Line
	7450 5400 7550 5400
Wire Wire Line
	7550 5500 7450 5500
Wire Wire Line
	7450 5600 7550 5600
Text Label 6400 2200 0    50   ~ 0
PA0
Text Label 6400 2300 0    50   ~ 0
PA1
Text Label 7900 1900 0    50   ~ 0
PA7
Text Label 7900 2300 0    50   ~ 0
USB_DM
Text Label 7900 2400 0    50   ~ 0
USB_DP
Text Label 7900 2500 0    50   ~ 0
PA13
Text Label 7900 2600 0    50   ~ 0
PA14
Wire Wire Line
	6300 2200 6400 2200
Wire Wire Line
	6300 2300 6400 2300
Wire Wire Line
	6400 2400 6300 2400
Wire Wire Line
	6300 2500 6400 2500
Wire Wire Line
	6400 2600 6300 2600
Wire Wire Line
	7800 1700 7900 1700
Wire Wire Line
	7900 1800 7800 1800
Wire Wire Line
	7800 1900 7900 1900
Wire Wire Line
	7900 2300 7800 2300
Wire Wire Line
	7800 2400 7900 2400
Wire Wire Line
	7900 2500 7800 2500
Wire Wire Line
	7800 2600 7900 2600
Text Label 6400 2000 0    50   ~ 0
NRST
Text Label 6400 1700 0    50   ~ 0
BOOT0
Text Label 6400 1800 0    50   ~ 0
PF0
Text Label 6400 1900 0    50   ~ 0
PF1
Text Label 7900 2000 0    50   ~ 0
PB1
Text Label 6650 4250 1    50   ~ 0
VCC
Text Label 7900 2200 0    50   ~ 0
VCC
Text Label 6750 4250 1    50   ~ 0
VCCA
Text Label 6400 2100 0    50   ~ 0
VCCA
Text Label 7900 2100 0    50   ~ 0
GND
Text Label 6650 5900 0    50   ~ 0
GND
Wire Wire Line
	6650 5800 6650 5950
Text Label 6400 2400 0    50   ~ 0
PA2_SWDIO_TMS
Text Label 6400 2500 0    50   ~ 0
PA3_SWO_TDO
Text Label 6400 2600 0    50   ~ 0
PA4_SWDCLK_TCK
Text Label 7900 1700 0    50   ~ 0
PA5_nRST
Text Label 7900 1800 0    50   ~ 0
PA6_NC_TDI
Text Label 9650 3450 0    50   ~ 0
VTref
Wire Wire Line
	9650 3450 9450 3450
$Comp
L power:GND #PWR011
U 1 1 5D51B9A4
P 9650 3900
F 0 "#PWR011" H 9650 3650 50  0001 C CNN
F 1 "GND" H 9655 3727 50  0000 C CNN
F 2 "" H 9650 3900 50  0001 C CNN
F 3 "" H 9650 3900 50  0001 C CNN
	1    9650 3900
	-1   0    0    -1  
$EndComp
Wire Wire Line
	9450 3550 9650 3550
Wire Wire Line
	9650 3550 9650 3650
Wire Wire Line
	9450 3650 9650 3650
Connection ~ 9650 3650
Wire Wire Line
	9650 3650 9650 3850
Wire Wire Line
	9450 3850 9650 3850
Connection ~ 9650 3850
Wire Wire Line
	9650 3850 9650 3900
Text Label 8700 3450 2    50   ~ 0
PA2_SWDIO_TMS
Text Label 8700 3550 2    50   ~ 0
PA4_SWDCLK_TCK
Text Label 8700 3650 2    50   ~ 0
PA3_SWO_TDO
Text Label 8700 3850 2    50   ~ 0
PA5_nRST
NoConn ~ 9450 3750
$Comp
L power:VCC #PWR014
U 1 1 5D55CEFB
P 2000 4700
F 0 "#PWR014" H 2000 4550 50  0001 C CNN
F 1 "VCC" H 2017 4873 50  0000 C CNN
F 2 "" H 2000 4700 50  0001 C CNN
F 3 "" H 2000 4700 50  0001 C CNN
	1    2000 4700
	1    0    0    -1  
$EndComp
Wire Wire Line
	2000 4700 2000 4850
Wire Wire Line
	2000 4850 2200 4850
Wire Wire Line
	2200 5200 2000 5200
Wire Wire Line
	2000 5200 2000 4850
Connection ~ 2000 4850
Wire Wire Line
	2200 5550 2000 5550
Wire Wire Line
	2000 5550 2000 5200
Connection ~ 2000 5200
Wire Wire Line
	2200 5900 2000 5900
Text Label 3050 5200 0    50   ~ 0
PA0
Text Label 3050 5550 0    50   ~ 0
PA1
$Comp
L power:GND #PWR015
U 1 1 5D57B493
P 3350 4850
F 0 "#PWR015" H 3350 4600 50  0001 C CNN
F 1 "GND" H 3355 4677 50  0000 C CNN
F 2 "" H 3350 4850 50  0001 C CNN
F 3 "" H 3350 4850 50  0001 C CNN
	1    3350 4850
	1    0    0    -1  
$EndComp
Wire Wire Line
	3350 4850 2800 4850
Wire Wire Line
	2800 5200 3050 5200
Wire Wire Line
	3050 5550 2800 5550
Text Label 2000 5900 2    50   ~ 0
VTref
$Comp
L power:GND #PWR016
U 1 1 5D5845BB
P 3100 5900
F 0 "#PWR016" H 3100 5650 50  0001 C CNN
F 1 "GND" H 3105 5727 50  0000 C CNN
F 2 "" H 3100 5900 50  0001 C CNN
F 3 "" H 3100 5900 50  0001 C CNN
	1    3100 5900
	1    0    0    -1  
$EndComp
Wire Wire Line
	3100 5900 2800 5900
Wire Wire Line
	6300 1700 6400 1700
Wire Wire Line
	6400 1800 6300 1800
Wire Wire Line
	6300 1900 6400 1900
Wire Wire Line
	6400 2000 6300 2000
Wire Wire Line
	6300 2100 6400 2100
Wire Wire Line
	7800 2000 7900 2000
Wire Wire Line
	7900 2100 7800 2100
Wire Wire Line
	7800 2200 7900 2200
Wire Wire Line
	4100 2550 4750 2550
$Comp
L Connector:Conn_01x02_Male VBUS1
U 1 1 5D5E3CE2
P 2700 1900
F 0 "VBUS1" V 2762 1944 50  0000 L CNN
F 1 "Conn_01x02_Male" V 2853 1944 50  0000 L CNN
F 2 "Connector_PinHeader_2.54mm:PinHeader_1x02_P2.54mm_Vertical" H 2700 1900 50  0001 C CNN
F 3 "~" H 2700 1900 50  0001 C CNN
	1    2700 1900
	0    1    1    0   
$EndComp
Wire Wire Line
	8950 3450 8700 3450
Wire Wire Line
	8700 3550 8950 3550
Wire Wire Line
	8950 3650 8700 3650
Wire Wire Line
	8700 3850 8950 3850
Text Label 8700 3750 2    50   ~ 0
PA6_NC_TDI
Wire Wire Line
	8950 3750 8700 3750
$Comp
L Connector:Conn_01x11_Male J1
U 1 1 5D4C5505
P 6100 2100
F 0 "J1" H 6208 2781 50  0000 C CNN
F 1 "Conn_01x11_Male" H 6208 2690 50  0000 C CNN
F 2 "Connector_PinHeader_2.54mm:PinHeader_1x11_P2.54mm_Vertical" H 6100 2100 50  0001 C CNN
F 3 "~" H 6100 2100 50  0001 C CNN
	1    6100 2100
	1    0    0    -1  
$EndComp
$Comp
L power:VCC #PWR0101
U 1 1 5D4C7184
P 6650 1600
F 0 "#PWR0101" H 6650 1450 50  0001 C CNN
F 1 "VCC" H 6667 1773 50  0000 C CNN
F 2 "" H 6650 1600 50  0001 C CNN
F 3 "" H 6650 1600 50  0001 C CNN
	1    6650 1600
	1    0    0    -1  
$EndComp
Wire Wire Line
	6650 1600 6300 1600
$EndSCHEMATC
